…
``` r
df_filtered <- df_filtered %>%
  filter(married | ever_had_partner | !is.na(str_extract(current_partner_status, "^Yes"))   ) %>% 
  mutate(ever_married = coalesce(times_married_inclusive, times_married, times_married_2)) %>%
  mutate(has_married = if_else(ever_married== "Never married" , FALSE, TRUE))  %>%
  # Now look if marriage ended
  mutate(end = coalesce(relationship_end_nonmar,marriage_end_mar)) %>%
  mutate(ended = if_else(married == TRUE | !is.na(str_extract(current_partner_status, "^Yes")) | !is.na(str_extract(end, "deceased$")), FALSE, TRUE )) 

df_filtered %>% 
  select(married,has_married, current_partner_status, ended, relationship_quality)
```

    ## # A tibble: 3,320 x 5
    ##    married has_married current_partner_status            ended relationship_qua~
    ##    <lgl>   <lgl>       <fct>                             <lgl> <fct>            
    ##  1 FALSE   TRUE        No, I am single, with no boyfrie~ TRUE  <NA>             
    ##  2 TRUE    TRUE        <NA>                              FALSE Excellent        
    ##  3 TRUE    TRUE        <NA>                              FALSE Good             
    ##  4 FALSE   FALSE       No, I am single, with no boyfrie~ TRUE  <NA>             
    ##  5 TRUE    TRUE        <NA>                              FALSE Excellent        
    ##  6 TRUE    TRUE        <NA>                              FALSE Good             
    ##  7 TRUE    TRUE        <NA>                              FALSE Excellent        
    ##  8 TRUE    TRUE        <NA>                              FALSE Excellent        
    ##  9 FALSE   FALSE       No, I am single, with no boyfrie~ FALSE <NA>             
    ## 10 TRUE    TRUE        <NA>                              FALSE Fair             
    ## # ... with 3,310 more rows
…
df_of_interest
```

    ## # A tibble: 3,320 x 28
    ##    married has_married ended ever_had_partner relationship_en~ marriage_end_mar
    ##    <lgl>   <lgl>       <lgl> <lgl>            <fct>            <fct>           
    ##  1 FALSE   TRUE        TRUE  TRUE             We broke up      <NA>            
    ##  2 TRUE    TRUE        FALSE NA               <NA>             <NA>            
    ##  3 TRUE    TRUE        FALSE NA               <NA>             <NA>            
    ##  4 FALSE   FALSE       TRUE  TRUE             We broke up      <NA>            
    ##  5 TRUE    TRUE        FALSE NA               <NA>             <NA>            
    ##  6 TRUE    TRUE        FALSE NA               <NA>             <NA>            
    ##  7 TRUE    TRUE        FALSE NA               <NA>             <NA>            
    ##  8 TRUE    TRUE        FALSE NA               <NA>             <NA>            
    ##  9 FALSE   FALSE       FALSE TRUE             [Partner Name] ~ <NA>            
    ## 10 TRUE    TRUE        FALSE NA               <NA>             <NA>            
    ## # ... with 3,310 more rows, and 22 more variables:
    ## #   ever_lived_together_w_partner <fct>, age_when_met <fct>,
    ## #   partnership_status <fct>, other_date <lgl>, grow_up_same_town <fct>,
    ## #   partner_polictial_belief <fct>, sexual_orientation <fct>, met_online <fct>,
    ## #   same_high_school <lgl>, same_university <lgl>, who_broke_up <fct>,
    ## #   times_married <fct>, partner_education_level <fct>, xlgb <fct>,
    ## #   w6_same_sex_couple <fct>, gender_sexually_attracted_to <fct>,
    ## #   mutual_friends_prior_1 <fct>, mutual_friends_prior_2 <fct>,
    ## #   mutual_friends_prior_3 <fct>, mutual_friends_prior_4 <fct>,
…
